{
  "type": "object",
  "required": [
    "dependencies",
    "report"
  ],
  "properties": {
    "dependencies": {
      "type": "array",
      "items": {
        "$ref": "./dependency.json"
      }
    },
    "report": {
      "status": { "type": "string" },
      "job_path": { "type": "string" },
      "generated_at": { "type": "string" }
    }
  },
  "additionalProperties": false
}
